Spatial Operations in R | Bas Machielsen
…
First, we extract the boundary and group and find the northern-most coordinate:

spl <- boundary %>% 
  st_cast("POINT") %>% 
  as("Spatial")

spl_grouped <- spl@coords %>% 
  as.data.frame() %>%
  group_by(coords.x1) %>% 
  arrange(coords.x1) %>% 
  slice_max(coords.x2)

spl_grouped

## # A tibble: 557 × 2
## # Groups:   coords.x1 [546]
##    coords.x1 coords.x2
##        <dbl>     <dbl>
##  1      3.36      51.3
##  2      3.37      51.4
##  3      3.37      51.3
##  4      3.37      51.3
##  5      3.38      51.3
##  6      3.39      51.3
##  7      3.41      51.3
##  8      3.43      51.4
##  9      3.43      51.5
## 10      3.44      51.4
## # … with 547 more rows
…
