Intervals and Durations in Feeding a New-born :) | Bas Machielsen
…
lev <- read_delim('./c7d82626-bd81-4d48-a96f-09dc4209a560.csv')

## Rows: 1289 Columns: 8
## ── Column specification ────────────────────────────────────────────────────────
## Delimiter: ","
## chr  (6): Type, Duration, Start Condition, Start Location, End Condition, Notes
## dttm (2): Start, End
## 
## ℹ Use `spec()` to retrieve the full column specification for this data.
## ℹ Specify the column types or set `show_col_types = FALSE` to quiet this message.

lev

## # A tibble: 1,289 × 8
##    Type  Start               End                 Duration `Start Condition`
##    <chr> <dttm>              <dttm>              <chr>    <chr>            
##  1 Feed  2024-06-02 16:08:00 2024-06-02 16:29:00 00:20    00:10R           
##  2 Feed  2024-06-02 12:45:00 2024-06-02 13:29:00 00:44    00:21R           
##  3 Feed  2024-06-02 08:36:00 2024-06-02 09:22:00 00:46    00:46R           
##  4 Feed  2024-06-02 06:00:00 2024-06-02 06:19:00 00:19    Null r           
##  5 Feed  2024-06-02 01:09:00 2024-06-02 01:45:00 00:36    00:36R           
##  6 Feed  2024-06-02 00:36:00 2024-06-02 00:47:00 00:11    Null r           
##  7 Feed  2024-06-01 21:21:00 2024-06-01 21:31:00 00:09    00:09R           
##  8 Feed  2024-06-01 20:28:00 2024-06-01 20:47:00 00:18    00:06R           
##  9 Feed  2024-06-01 17:56:00 2024-06-01 18:31:00 00:34    00:17R           
## 10 Feed  2024-06-01 14:37:00 2024-06-01 15:08:00 00:30    00:20R           
## # ℹ 1,279 more rows
## # ℹ 3 more variables: `Start Location` <chr>, `End Condition` <chr>,
## #   Notes <chr>
…
