R: filtering with across in dplyr | Bas Machielsen
…
numbers %>%
  filter(across(a, ~ . > 9999))

##       a     b
## 1 10000 10000
## 2 90000 20000
## 3 60000  4000

As as second example, let’s implement a condition requiring that the string length of every character variable be greater than 2 (or 3) in the dplyr::starwars dataset:

starwars %>%
  filter(across(is.character, ~ str_length(.) > 2))

## # A tibble: 69 × 14
##    name     height  mass hair_color skin_color eye_color birth_year sex   gender
##    <chr>     <int> <dbl> <chr>      <chr>      <chr>          <dbl> <chr> <chr> 
##  1 Luke Sk…    172    77 blond      fair       blue            19   male  mascu…
##  2 Darth V…    202   136 none       white      yellow          41.9 male  mascu…
##  3 Leia Or…    150    49 brown      light      brown           19   fema… femin…
##  4 Owen La…    178   120 brown, gr… light      blue            52   male  mascu…
##  5 Beru Wh…    165    75 brown      light      blue            47   fema… femin…
##  6 Biggs D…    183    84 black      light      brown           24   male  mascu…
##  7 Obi-Wan…    182    77 auburn, w… fair       blue-gray       57   male  mascu…
##  8 Anakin …    188    84 blond      fair       blue            41.9 male  mascu…
##  9 Wilhuff…    180    NA auburn, g… fair       blue            64   male  mascu…
## 10 Chewbac…    228   112 brown      unknown    blue           200   male  mascu…
## # … with 59 more rows, and 5 more variables: homeworld <chr>, species <chr>,
## #   films <list>, vehicles <list>, starships <list>

starwars %>%
  filter(across(is.character, ~ str_length(.) > 3))

## # A tibble: 63 × 14
##    name     height  mass hair_color skin_color eye_color birth_year sex   gender
##    <chr>     <int> <dbl> <chr>      <chr>      <chr>          <dbl> <chr> <chr> 
##  1 Luke Sk…    172    77 blond      fair       blue            19   male  mascu…
##  2 Darth V…    202   136 none       white      yellow          41.9 male  mascu…
##  3 Leia Or…    150    49 brown      light      brown           19   fema… femin…
##  4 Owen La…    178   120 brown, gr… light      blue            52   male  mascu…
##  5 Beru Wh…    165    75 brown      light      blue            47   fema… femin…
##  6 Biggs D…    183    84 black      light      brown           24   male  mascu…
##  7 Obi-Wan…    182    77 auburn, w… fair       blue-gray       57   male  mascu…
##  8 Anakin …    188    84 blond      fair       blue            41.9 male  mascu…
##  9 Wilhuff…    180    NA auburn, g… fair       blue            64   male  mascu…
## 10 Chewbac…    228   112 brown      unknown    blue           200   male  mascu…
## # … with 53 more rows, and 5 more variables: homeworld <chr>, species <chr>,
## #   films <list>, vehicles <list>, starships <list>
…
df %>%
  filter(across(is.numeric, ~ . > -1), across(c(w,u), ~ str_length(.) > 5))

## # A tibble: 1 × 5
##   x         y     z w            u                      
##   <chr> <dbl> <dbl> <chr>        <chr>                  
## 1 b         1     1 Genghis Khan Monsieur Eugene Duchene

.. or perhaps better illustrated by:

# All numeric variables must be larger than 10
starwars %>%
  filter(across(is.numeric, ~ . > 10))

## # A tibble: 35 × 14
##    name     height  mass hair_color skin_color eye_color birth_year sex   gender
##    <chr>     <int> <dbl> <chr>      <chr>      <chr>          <dbl> <chr> <chr> 
##  1 Luke Sk…    172    77 blond      fair       blue            19   male  mascu…
##  2 C-3PO       167    75 <NA>       gold       yellow         112   none  mascu…
##  3 R2-D2        96    32 <NA>       white, bl… red             33   none  mascu…
##  4 Darth V…    202   136 none       white      yellow          41.9 male  mascu…
##  5 Leia Or…    150    49 brown      light      brown           19   fema… femin…
##  6 Owen La…    178   120 brown, gr… light      blue            52   male  mascu…
##  7 Beru Wh…    165    75 brown      light      blue            47   fema… femin…
##  8 Biggs D…    183    84 black      light      brown           24   male  mascu…
##  9 Obi-Wan…    182    77 auburn, w… fair       blue-gray       57   male  mascu…
## 10 Anakin …    188    84 blond      fair       blue            41.9 male  mascu…
## # … with 25 more rows, and 5 more variables: homeworld <chr>, species <chr>,
## #   films <list>, vehicles <list>, starships <list>
…
